{
    "client": "Thunder Client",
    "collectionName": "flexfy-backend",
    "dateExported": "2023-08-21T04:15:35.183Z",
    "version": "1.1",
    "folders": [
        {
            "_id": "c0e0d21b-e08a-4da3-93da-18c3cfeeac68",
            "name": "landing",
            "containerId": "",
            "created": "2023-08-21T04:05:14.487Z",
            "sortNum": 10000
        },
        {
            "_id": "ea5ccd89-993a-4bd3-8f0e-348b065d26e9",
            "name": "home",
            "containerId": "c0e0d21b-e08a-4da3-93da-18c3cfeeac68",
            "created": "2023-08-21T04:05:14.488Z",
            "sortNum": 20000
        },
        {
            "_id": "a0475b7f-4ca5-4576-89fa-4c36efde2e4e",
            "name": "product",
            "containerId": "c0e0d21b-e08a-4da3-93da-18c3cfeeac68",
            "created": "2023-08-21T04:05:14.489Z",
            "sortNum": 30000
        },
        {
            "_id": "0f0da0af-1d97-4d73-b65d-8f19cade708b",
            "name": "category",
            "containerId": "c0e0d21b-e08a-4da3-93da-18c3cfeeac68",
            "created": "2023-08-21T04:05:14.493Z",
            "sortNum": 40000
        },
        {
            "_id": "e6fead1f-a546-47ab-977a-f322f1e2d7a0",
            "name": "question",
            "containerId": "c0e0d21b-e08a-4da3-93da-18c3cfeeac68",
            "created": "2023-08-21T04:10:19.021Z",
            "sortNum": 45000
        },
        {
            "_id": "c4f63828-7f6c-4b5c-811f-ea1177878c2a",
            "name": "review",
            "containerId": "c0e0d21b-e08a-4da3-93da-18c3cfeeac68",
            "created": "2023-08-21T04:11:05.204Z",
            "sortNum": 47500
        },
        {
            "_id": "d01a9ec8-d1ac-4cb2-9fa2-8680639890b5",
            "name": "cms",
            "containerId": "",
            "created": "2023-08-21T04:05:14.490Z",
            "sortNum": 50000
        },
        {
            "_id": "7e82d28f-5c73-44e0-b738-02647f91dbb3",
            "name": "country",
            "containerId": "c0e0d21b-e08a-4da3-93da-18c3cfeeac68",
            "created": "2023-08-21T04:05:14.494Z",
            "sortNum": 50000
        },
        {
            "_id": "14a1cf9f-58d4-41ac-9f40-1d715b162804",
            "name": "auth",
            "containerId": "d01a9ec8-d1ac-4cb2-9fa2-8680639890b5",
            "created": "2023-08-21T04:05:14.491Z",
            "sortNum": 60000
        },
        {
            "_id": "5ad80a1a-24a5-4335-b13c-b4c1ef36c388",
            "name": "categories",
            "containerId": "d01a9ec8-d1ac-4cb2-9fa2-8680639890b5",
            "created": "2023-08-21T04:05:14.492Z",
            "sortNum": 70000
        }
    ],
    "requests": [
        {
            "_id": "c6a24542-c523-453b-a2c3-caa0ebeb7027",
            "colId": "e19a87e7-3c44-44a9-a05e-068914ad212e",
            "containerId": "ea5ccd89-993a-4bd3-8f0e-348b065d26e9",
            "name": "get-banner",
            "url": "/landing/home/banner",
            "method": "GET",
            "sortNum": 5000,
            "created": "2023-08-21T04:05:14.488Z",
            "modified": "2023-08-21T04:05:14.488Z",
            "headers": [],
            "params": [],
            "tests": []
        },
        {
            "_id": "2462701d-8b36-4754-b494-1ef744afc4db",
            "colId": "e19a87e7-3c44-44a9-a05e-068914ad212e",
            "containerId": "ea5ccd89-993a-4bd3-8f0e-348b065d26e9",
            "name": "get-menu",
            "url": "/landing/home/menu",
            "method": "GET",
            "sortNum": 10000,
            "created": "2023-08-21T04:05:14.487Z",
            "modified": "2023-08-21T04:05:14.487Z",
            "headers": [],
            "params": [],
            "tests": []
        },
        {
            "_id": "25166559-1343-4cf1-ab3b-a7731b2e02dc",
            "colId": "e19a87e7-3c44-44a9-a05e-068914ad212e",
            "containerId": "a0475b7f-4ca5-4576-89fa-4c36efde2e4e",
            "name": "get-list",
            "url": "/landing/product/find",
            "method": "GET",
            "sortNum": 10000,
            "created": "2023-08-21T04:05:14.492Z",
            "modified": "2023-08-21T04:05:14.492Z",
            "headers": [],
            "params": [],
            "tests": []
        },
        {
            "_id": "cb8d237e-5118-4b9e-94cf-825aad3c659e",
            "colId": "e19a87e7-3c44-44a9-a05e-068914ad212e",
            "containerId": "0f0da0af-1d97-4d73-b65d-8f19cade708b",
            "name": "get-list",
            "url": "/landing/categories/find",
            "method": "GET",
            "sortNum": 10000,
            "created": "2023-08-21T04:05:14.507Z",
            "modified": "2023-08-21T04:05:14.507Z",
            "headers": [],
            "params": [],
            "tests": []
        },
        {
            "_id": "e10e6723-9ec8-466b-aff1-0b32d5b0e417",
            "colId": "e19a87e7-3c44-44a9-a05e-068914ad212e",
            "containerId": "e6fead1f-a546-47ab-977a-f322f1e2d7a0",
            "name": "get-list-by-product",
            "url": "/landing/question/product/:slug",
            "method": "GET",
            "sortNum": 10000,
            "created": "2023-08-21T04:10:19.021Z",
            "modified": "2023-08-21T04:10:45.374Z",
            "headers": [],
            "params": [],
            "tests": []
        },
        {
            "_id": "8dd734a7-3241-4a5c-abda-bc2f07e6e84b",
            "colId": "e19a87e7-3c44-44a9-a05e-068914ad212e",
            "containerId": "c4f63828-7f6c-4b5c-811f-ea1177878c2a",
            "name": "get-list-by-product",
            "url": "/landing/review/product/:slug",
            "method": "GET",
            "sortNum": 10000,
            "created": "2023-08-21T04:11:05.204Z",
            "modified": "2023-08-21T04:11:17.970Z",
            "headers": [],
            "params": [],
            "tests": []
        },
        {
            "_id": "b0843c34-f557-49fa-8adf-7c83c2df333c",
            "colId": "e19a87e7-3c44-44a9-a05e-068914ad212e",
            "containerId": "a0475b7f-4ca5-4576-89fa-4c36efde2e4e",
            "name": "get-detail",
            "url": "/landing/product/find/:slug",
            "method": "GET",
            "sortNum": 12500,
            "created": "2023-08-21T04:07:01.236Z",
            "modified": "2023-08-21T04:07:24.190Z",
            "headers": [],
            "params": [],
            "tests": []
        },
        {
            "_id": "5db9bb49-f670-4f8f-91f6-dae5a8787247",
            "colId": "e19a87e7-3c44-44a9-a05e-068914ad212e",
            "containerId": "a0475b7f-4ca5-4576-89fa-4c36efde2e4e",
            "name": "get-related",
            "url": "/landing/product/related?c=bra",
            "method": "GET",
            "sortNum": 15000,
            "created": "2023-08-21T04:05:14.494Z",
            "modified": "2023-08-21T04:05:14.494Z",
            "headers": [],
            "params": [
                {
                    "name": "c",
                    "value": "bra",
                    "isPath": false
                }
            ],
            "tests": []
        },
        {
            "_id": "412c3390-f0c4-4624-830e-d9a9732eb010",
            "colId": "e19a87e7-3c44-44a9-a05e-068914ad212e",
            "containerId": "ea5ccd89-993a-4bd3-8f0e-348b065d26e9",
            "name": "get-promotion",
            "url": "/landing/home/promotion",
            "method": "GET",
            "sortNum": 15000,
            "created": "2023-08-21T04:05:14.505Z",
            "modified": "2023-08-21T04:05:14.505Z",
            "headers": [],
            "params": [],
            "tests": []
        },
        {
            "_id": "f73d9472-f1b7-4ee8-b90c-cc22e567a9b5",
            "colId": "e19a87e7-3c44-44a9-a05e-068914ad212e",
            "containerId": "0f0da0af-1d97-4d73-b65d-8f19cade708b",
            "name": "get-category-by-slug",
            "url": "/landing/categories/:slug",
            "method": "GET",
            "sortNum": 20000,
            "created": "2023-08-21T04:05:14.508Z",
            "modified": "2023-08-21T04:05:14.508Z",
            "headers": [],
            "params": [],
            "tests": []
        },
        {
            "_id": "bf89c291-e454-48dd-bd2e-4c0fb573e174",
            "colId": "e19a87e7-3c44-44a9-a05e-068914ad212e",
            "containerId": "7e82d28f-5c73-44e0-b738-02647f91dbb3",
            "name": "get-all-country",
            "url": "/landing/country",
            "method": "GET",
            "sortNum": 20000,
            "created": "2023-08-21T04:05:14.509Z",
            "modified": "2023-08-21T04:05:14.509Z",
            "headers": [],
            "params": [],
            "tests": []
        },
        {
            "_id": "48aca0a0-325b-4431-9e81-bae892a90424",
            "colId": "e19a87e7-3c44-44a9-a05e-068914ad212e",
            "containerId": "a0475b7f-4ca5-4576-89fa-4c36efde2e4e",
            "name": "get-review-question-overview",
            "url": "/landing/product/feedback/:slug",
            "method": "GET",
            "sortNum": 25000,
            "created": "2023-08-21T04:09:20.371Z",
            "modified": "2023-08-21T04:09:47.291Z",
            "headers": [],
            "params": [],
            "tests": []
        },
        {
            "_id": "113751ce-f7a3-418e-bde0-f30dd8cea6bf",
            "colId": "e19a87e7-3c44-44a9-a05e-068914ad212e",
            "containerId": "ea5ccd89-993a-4bd3-8f0e-348b065d26e9",
            "name": "get-best-sellers",
            "url": "/landing/home/best-sellers",
            "method": "GET",
            "sortNum": 30000,
            "created": "2023-08-21T04:05:14.489Z",
            "modified": "2023-08-21T04:05:14.489Z",
            "headers": [],
            "params": [],
            "tests": []
        },
        {
            "_id": "8554832d-1ca0-49b1-92b0-2119430025df",
            "colId": "e19a87e7-3c44-44a9-a05e-068914ad212e",
            "containerId": "ea5ccd89-993a-4bd3-8f0e-348b065d26e9",
            "name": "get-sale-off-products",
            "url": "/landing/home/sale-off-products",
            "method": "GET",
            "sortNum": 40000,
            "created": "2023-08-21T04:05:14.490Z",
            "modified": "2023-08-21T04:05:14.490Z",
            "headers": [],
            "params": [],
            "tests": []
        },
        {
            "_id": "17cba6f0-940c-48ad-8e75-e83c91f45cda",
            "colId": "e19a87e7-3c44-44a9-a05e-068914ad212e",
            "containerId": "ea5ccd89-993a-4bd3-8f0e-348b065d26e9",
            "name": "get-sale-off-categories",
            "url": "/landing/home/sale-off-categories",
            "method": "GET",
            "sortNum": 50000,
            "created": "2023-08-21T04:05:14.491Z",
            "modified": "2023-08-21T04:05:14.491Z",
            "headers": [],
            "params": [],
            "tests": []
        },
        {
            "_id": "2251d2a7-269e-45c2-a2dc-069d8000a2fd",
            "colId": "e19a87e7-3c44-44a9-a05e-068914ad212e",
            "containerId": "14a1cf9f-58d4-41ac-9f40-1d715b162804",
            "name": "auth-init",
            "url": "/cms/auth/init",
            "method": "GET",
            "sortNum": 60000,
            "created": "2023-08-21T04:05:14.500Z",
            "modified": "2023-08-21T04:05:14.500Z",
            "headers": [],
            "params": [],
            "tests": []
        },
        {
            "_id": "6f46e700-d441-45d1-8e68-8fb0bc0bd226",
            "colId": "e19a87e7-3c44-44a9-a05e-068914ad212e",
            "containerId": "5ad80a1a-24a5-4335-b13c-b4c1ef36c388",
            "name": "find-many",
            "url": "/cms/categories/find",
            "method": "GET",
            "sortNum": 60000,
            "created": "2023-08-21T04:05:14.501Z",
            "modified": "2023-08-21T04:05:14.501Z",
            "headers": [],
            "params": [],
            "tests": []
        },
        {
            "_id": "3d3ddad4-e8d5-49aa-982d-92a5c68bba51",
            "colId": "e19a87e7-3c44-44a9-a05e-068914ad212e",
            "containerId": "3503245c-b3a7-4e19-9934-d3201213b0c0",
            "name": "advertising",
            "url": "/landing/home/advertising",
            "method": "GET",
            "sortNum": 70000,
            "created": "2023-08-21T04:05:14.495Z",
            "modified": "2023-08-21T04:05:14.495Z",
            "headers": [],
            "params": [],
            "tests": []
        },
        {
            "_id": "48ba7e32-e832-440c-b60f-ae94e7ac51f6",
            "colId": "e19a87e7-3c44-44a9-a05e-068914ad212e",
            "containerId": "3503245c-b3a7-4e19-9934-d3201213b0c0",
            "name": "crew-raving",
            "url": "/landing/home/crew-raving",
            "method": "GET",
            "sortNum": 75000,
            "created": "2023-08-21T04:05:14.497Z",
            "modified": "2023-08-21T04:05:14.497Z",
            "headers": [],
            "params": [],
            "tests": []
        },
        {
            "_id": "ee9a49f0-3594-4779-8d4e-582b62ed6c55",
            "colId": "e19a87e7-3c44-44a9-a05e-068914ad212e",
            "containerId": "3503245c-b3a7-4e19-9934-d3201213b0c0",
            "name": "community",
            "url": "/landing/home/community",
            "method": "GET",
            "sortNum": 80000,
            "created": "2023-08-21T04:05:14.496Z",
            "modified": "2023-08-21T04:05:14.496Z",
            "headers": [],
            "params": [],
            "tests": []
        },
        {
            "_id": "224be4bf-08dd-4447-82f5-970d80a68c93",
            "colId": "e19a87e7-3c44-44a9-a05e-068914ad212e",
            "containerId": "3503245c-b3a7-4e19-9934-d3201213b0c0",
            "name": "promotion",
            "url": "/landing/home/promotion",
            "method": "GET",
            "sortNum": 100000,
            "created": "2023-08-21T04:05:14.498Z",
            "modified": "2023-08-21T04:05:14.498Z",
            "headers": [],
            "params": [],
            "tests": []
        },
        {
            "_id": "82de81ae-185e-4c39-9748-9d7fcf53281e",
            "colId": "e19a87e7-3c44-44a9-a05e-068914ad212e",
            "containerId": "3503245c-b3a7-4e19-9934-d3201213b0c0",
            "name": "get-footer",
            "url": "/landing/home/footer",
            "method": "GET",
            "sortNum": 110000,
            "created": "2023-08-21T04:05:14.499Z",
            "modified": "2023-08-21T04:05:14.499Z",
            "headers": [],
            "params": [],
            "tests": []
        },
        {
            "_id": "bc7ccb33-6714-4dbe-b6fe-c9a1193f88c7",
            "colId": "e19a87e7-3c44-44a9-a05e-068914ad212e",
            "containerId": "ea5ccd89-993a-4bd3-8f0e-348b065d26e9",
            "name": "get-advertising",
            "url": "/landing/home/advertising",
            "method": "GET",
            "sortNum": 130000,
            "created": "2023-08-21T04:05:14.502Z",
            "modified": "2023-08-21T04:05:14.502Z",
            "headers": [],
            "params": [],
            "tests": []
        },
        {
            "_id": "22aebfcf-5f9c-4e1e-bb0d-d190cf78aa58",
            "colId": "e19a87e7-3c44-44a9-a05e-068914ad212e",
            "containerId": "ea5ccd89-993a-4bd3-8f0e-348b065d26e9",
            "name": "get-community",
            "url": "/landing/home/community",
            "method": "GET",
            "sortNum": 135000,
            "created": "2023-08-21T04:05:14.504Z",
            "modified": "2023-08-21T04:05:14.504Z",
            "headers": [],
            "params": [],
            "tests": []
        },
        {
            "_id": "543b0b60-de6f-44d4-9a21-59c2e97cbdfb",
            "colId": "e19a87e7-3c44-44a9-a05e-068914ad212e",
            "containerId": "ea5ccd89-993a-4bd3-8f0e-348b065d26e9",
            "name": "get-crew-raving",
            "url": "/landing/home/crew-raving",
            "method": "GET",
            "sortNum": 140000,
            "created": "2023-08-21T04:05:14.503Z",
            "modified": "2023-08-21T04:05:14.503Z",
            "headers": [],
            "params": [],
            "tests": []
        },
        {
            "_id": "1de4ac87-e6f3-478f-8ca9-2521dc26697c",
            "colId": "e19a87e7-3c44-44a9-a05e-068914ad212e",
            "containerId": "ea5ccd89-993a-4bd3-8f0e-348b065d26e9",
            "name": "get-footer",
            "url": "/landing/home/footer",
            "method": "GET",
            "sortNum": 170000,
            "created": "2023-08-21T04:05:14.506Z",
            "modified": "2023-08-21T04:05:14.506Z",
            "headers": [],
            "params": [],
            "tests": []
        }
    ],
    "settings": {
        "options": {
            "baseUrl": "localhost:33333"
        }
    }
}